(kicad_symbol_lib
	(version 20231120)
	(generator "kicad_symbol_editor")
	(generator_version "8.0")
	(symbol "T8Q144xx"
		(exclude_from_sim no)
		(in_bom yes)
		(on_board yes)
		(property "Reference" "U"
			(at -24.13 16.51 0)
			(effects
				(font
					(size 1.27 1.27)
				)
			)
		)
		(property "Value" "T8Q144xx"
			(at 19.05 -16.51 0)
			(effects
				(font
					(size 1.27 1.27)
				)
			)
		)
		(property "Footprint" "Package_QFP:LQFP-144_20x20mm_P0.5mm"
			(at 0 -24.13 0)
			(effects
				(font
					(size 1.27 1.27)
				)
				(hide yes)
			)
		)
		(property "Datasheet" "https://www.efinixinc.com/docs/trion8-ds-v4.4.pdf"
			(at 0 -26.67 0)
			(effects
				(font
					(size 1.27 1.27)
				)
				(hide yes)
			)
		)
		(property "Description" "Efinix Trion FPGA, 7384 LEs, LQFP-144"
			(at 0 0 0)
			(effects
				(font
					(size 1.27 1.27)
				)
				(hide yes)
			)
		)
		(property "ki_locked" ""
			(at 0 0 0)
			(effects
				(font
					(size 1.27 1.27)
				)
			)
		)
		(property "ki_keywords" "FPGA programmable logic"
			(at 0 0 0)
			(effects
				(font
					(size 1.27 1.27)
				)
				(hide yes)
			)
		)
		(property "ki_fp_filters" "LQFP*20x20mm*P0.5mm*"
			(at 0 0 0)
			(effects
				(font
					(size 1.27 1.27)
				)
				(hide yes)
			)
		)
		(symbol "T8Q144xx_1_1"
			(rectangle
				(start -17.78 12.7)
				(end 17.78 -12.7)
				(stroke
					(width 0.254)
					(type default)
				)
				(fill
					(type background)
				)
			)
			(pin power_in line
				(at 0 17.78 270)
				(length 5.08)
				(name "VCCIO1A"
					(effects
						(font
							(size 1.27 1.27)
						)
					)
				)
				(number "23"
					(effects
						(font
							(size 1.27 1.27)
						)
					)
				)
			)
			(pin output line
				(at -22.86 -5.08 0)
				(length 5.08)
				(name "TDO"
					(effects
						(font
							(size 1.27 1.27)
						)
					)
				)
				(number "24"
					(effects
						(font
							(size 1.27 1.27)
						)
					)
				)
			)
			(pin input line
				(at -22.86 -7.62 0)
				(length 5.08)
				(name "TMS"
					(effects
						(font
							(size 1.27 1.27)
						)
					)
				)
				(number "25"
					(effects
						(font
							(size 1.27 1.27)
						)
					)
				)
			)
			(pin input line
				(at -22.86 0 0)
				(length 5.08)
				(name "TCK"
					(effects
						(font
							(size 1.27 1.27)
						)
					)
				)
				(number "26"
					(effects
						(font
							(size 1.27 1.27)
						)
					)
				)
			)
			(pin input line
				(at -22.86 -2.54 0)
				(length 5.08)
				(name "TDI"
					(effects
						(font
							(size 1.27 1.27)
						)
					)
				)
				(number "27"
					(effects
						(font
							(size 1.27 1.27)
						)
					)
				)
			)
			(pin bidirectional line
				(at 22.86 -2.54 180)
				(length 5.08)
				(name "GPIOL_09_CDI1"
					(effects
						(font
							(size 1.27 1.27)
						)
					)
				)
				(number "28"
					(effects
						(font
							(size 1.27 1.27)
						)
					)
				)
			)
			(pin bidirectional line
				(at 22.86 0 180)
				(length 5.08)
				(name "GPIOL_08_CDI0"
					(effects
						(font
							(size 1.27 1.27)
						)
					)
				)
				(number "29"
					(effects
						(font
							(size 1.27 1.27)
						)
					)
				)
			)
			(pin bidirectional line
				(at 22.86 7.62 180)
				(length 5.08)
				(name "GPIOL_01_CCK"
					(effects
						(font
							(size 1.27 1.27)
						)
					)
				)
				(number "30"
					(effects
						(font
							(size 1.27 1.27)
						)
					)
				)
			)
			(pin bidirectional line
				(at 22.86 10.16 180)
				(length 5.08)
				(name "GPIOL_00_SS_N"
					(effects
						(font
							(size 1.27 1.27)
						)
					)
				)
				(number "31"
					(effects
						(font
							(size 1.27 1.27)
						)
					)
				)
			)
			(pin bidirectional line
				(at 22.86 5.08 180)
				(length 5.08)
				(name "GPIOL_04_CSI"
					(effects
						(font
							(size 1.27 1.27)
						)
					)
				)
				(number "32"
					(effects
						(font
							(size 1.27 1.27)
						)
					)
				)
			)
			(pin bidirectional line
				(at 22.86 2.54 180)
				(length 5.08)
				(name "GPIOL_05_CSO"
					(effects
						(font
							(size 1.27 1.27)
						)
					)
				)
				(number "33"
					(effects
						(font
							(size 1.27 1.27)
						)
					)
				)
			)
			(pin bidirectional line
				(at -22.86 10.16 0)
				(length 5.08)
				(name "CDONE"
					(effects
						(font
							(size 1.27 1.27)
						)
					)
				)
				(number "34"
					(effects
						(font
							(size 1.27 1.27)
						)
					)
				)
			)
			(pin bidirectional line
				(at -22.86 5.08 0)
				(length 5.08)
				(name "CRESET_N"
					(effects
						(font
							(size 1.27 1.27)
						)
					)
				)
				(number "35"
					(effects
						(font
							(size 1.27 1.27)
						)
					)
				)
			)
		)
		(symbol "T8Q144xx_2_1"
			(rectangle
				(start -22.86 7.62)
				(end 22.86 -7.62)
				(stroke
					(width 0.254)
					(type default)
				)
				(fill
					(type background)
				)
			)
			(pin bidirectional line
				(at 27.94 0 180)
				(length 5.08)
				(name "GPIOL_25_CLK1"
					(effects
						(font
							(size 1.27 1.27)
						)
					)
				)
				(number "14"
					(effects
						(font
							(size 1.27 1.27)
						)
					)
				)
			)
			(pin bidirectional line
				(at 27.94 2.54 180)
				(length 5.08)
				(name "GPIOL_24_CLK0"
					(effects
						(font
							(size 1.27 1.27)
						)
					)
				)
				(number "15"
					(effects
						(font
							(size 1.27 1.27)
						)
					)
				)
			)
			(pin bidirectional line
				(at 27.94 5.08 180)
				(length 5.08)
				(name "GPIOL_22_CTRL2"
					(effects
						(font
							(size 1.27 1.27)
						)
					)
				)
				(number "16"
					(effects
						(font
							(size 1.27 1.27)
						)
					)
				)
			)
			(pin bidirectional line
				(at -27.94 -2.54 0)
				(length 5.08)
				(name "GPIOL_21_CTRL1_CDI5"
					(effects
						(font
							(size 1.27 1.27)
						)
					)
				)
				(number "17"
					(effects
						(font
							(size 1.27 1.27)
						)
					)
				)
			)
			(pin bidirectional line
				(at -27.94 0 0)
				(length 5.08)
				(name "GPIOL_20_CTRL0_CDI4"
					(effects
						(font
							(size 1.27 1.27)
						)
					)
				)
				(number "18"
					(effects
						(font
							(size 1.27 1.27)
						)
					)
				)
			)
			(pin bidirectional line
				(at -27.94 2.54 0)
				(length 5.08)
				(name "GPIOL_13_CDI3"
					(effects
						(font
							(size 1.27 1.27)
						)
					)
				)
				(number "19"
					(effects
						(font
							(size 1.27 1.27)
						)
					)
				)
			)
			(pin bidirectional line
				(at -27.94 5.08 0)
				(length 5.08)
				(name "GPIOL_12_CDI2"
					(effects
						(font
							(size 1.27 1.27)
						)
					)
				)
				(number "20"
					(effects
						(font
							(size 1.27 1.27)
						)
					)
				)
			)
			(pin power_in line
				(at 0 12.7 270)
				(length 5.08)
				(name "VCCIO1B"
					(effects
						(font
							(size 1.27 1.27)
						)
					)
				)
				(number "21"
					(effects
						(font
							(size 1.27 1.27)
						)
					)
				)
			)
		)
		(symbol "T8Q144xx_3_1"
			(rectangle
				(start -22.86 7.62)
				(end 22.86 -7.62)
				(stroke
					(width 0.254)
					(type default)
				)
				(fill
					(type background)
				)
			)
			(pin bidirectional line
				(at -27.94 2.54 0)
				(length 5.08)
				(name "GPIOL_32_CTRL4_CDI7"
					(effects
						(font
							(size 1.27 1.27)
						)
					)
				)
				(number "10"
					(effects
						(font
							(size 1.27 1.27)
						)
					)
				)
			)
			(pin bidirectional line
				(at -27.94 5.08 0)
				(length 5.08)
				(name "GPIOL_31_CLK7_CDI6"
					(effects
						(font
							(size 1.27 1.27)
						)
					)
				)
				(number "11"
					(effects
						(font
							(size 1.27 1.27)
						)
					)
				)
			)
			(pin power_in line
				(at 0 12.7 270)
				(length 5.08)
				(name "VCCIO1C_1D"
					(effects
						(font
							(size 1.27 1.27)
						)
					)
				)
				(number "12"
					(effects
						(font
							(size 1.27 1.27)
						)
					)
				)
			)
			(pin bidirectional line
				(at 27.94 2.54 180)
				(length 5.08)
				(name "GPIOL_53_CDI10"
					(effects
						(font
							(size 1.27 1.27)
						)
					)
				)
				(number "3"
					(effects
						(font
							(size 1.27 1.27)
						)
					)
				)
			)
			(pin bidirectional line
				(at 27.94 0 180)
				(length 5.08)
				(name "GPIOL_54_CDI11"
					(effects
						(font
							(size 1.27 1.27)
						)
					)
				)
				(number "4"
					(effects
						(font
							(size 1.27 1.27)
						)
					)
				)
			)
			(pin bidirectional line
				(at 27.94 5.08 180)
				(length 5.08)
				(name "GPIOL_46"
					(effects
						(font
							(size 1.27 1.27)
						)
					)
				)
				(number "6"
					(effects
						(font
							(size 1.27 1.27)
						)
					)
				)
			)
			(pin bidirectional line
				(at -27.94 -2.54 0)
				(length 5.08)
				(name "GPIOL_41_CDI9"
					(effects
						(font
							(size 1.27 1.27)
						)
					)
				)
				(number "7"
					(effects
						(font
							(size 1.27 1.27)
						)
					)
				)
			)
			(pin bidirectional line
				(at -27.94 0 0)
				(length 5.08)
				(name "GPIOL_40_CDI8"
					(effects
						(font
							(size 1.27 1.27)
						)
					)
				)
				(number "8"
					(effects
						(font
							(size 1.27 1.27)
						)
					)
				)
			)
		)
		(symbol "T8Q144xx_4_1"
			(rectangle
				(start -25.4 10.16)
				(end 25.4 -10.16)
				(stroke
					(width 0.254)
					(type default)
				)
				(fill
					(type background)
				)
			)
			(pin bidirectional line
				(at 30.48 -5.08 180)
				(length 5.08)
				(name "GPIOL_75_PLLIN1"
					(effects
						(font
							(size 1.27 1.27)
						)
					)
				)
				(number "131"
					(effects
						(font
							(size 1.27 1.27)
						)
					)
				)
			)
			(pin bidirectional line
				(at 30.48 -2.54 180)
				(length 5.08)
				(name "GPIOL_74_PLLIN0"
					(effects
						(font
							(size 1.27 1.27)
						)
					)
				)
				(number "132"
					(effects
						(font
							(size 1.27 1.27)
						)
					)
				)
			)
			(pin bidirectional line
				(at 30.48 0 180)
				(length 5.08)
				(name "GPIOL_73_EXTFB1_CDI15"
					(effects
						(font
							(size 1.27 1.27)
						)
					)
				)
				(number "134"
					(effects
						(font
							(size 1.27 1.27)
						)
					)
				)
			)
			(pin bidirectional line
				(at 30.48 2.54 180)
				(length 5.08)
				(name "GPIOL_72_EXTFB0_CDI14"
					(effects
						(font
							(size 1.27 1.27)
						)
					)
				)
				(number "135"
					(effects
						(font
							(size 1.27 1.27)
						)
					)
				)
			)
			(pin bidirectional line
				(at 30.48 5.08 180)
				(length 5.08)
				(name "GPIOL_71_NSTATUS"
					(effects
						(font
							(size 1.27 1.27)
						)
					)
				)
				(number "136"
					(effects
						(font
							(size 1.27 1.27)
						)
					)
				)
			)
			(pin bidirectional line
				(at 30.48 7.62 180)
				(length 5.08)
				(name "GPIOL_70_CBSEL0"
					(effects
						(font
							(size 1.27 1.27)
						)
					)
				)
				(number "137"
					(effects
						(font
							(size 1.27 1.27)
						)
					)
				)
			)
			(pin bidirectional line
				(at -30.48 -5.08 0)
				(length 5.08)
				(name "GPIOL_69_CBSEL1"
					(effects
						(font
							(size 1.27 1.27)
						)
					)
				)
				(number "138"
					(effects
						(font
							(size 1.27 1.27)
						)
					)
				)
			)
			(pin bidirectional line
				(at -30.48 -2.54 0)
				(length 5.08)
				(name "GPIOL_68"
					(effects
						(font
							(size 1.27 1.27)
						)
					)
				)
				(number "139"
					(effects
						(font
							(size 1.27 1.27)
						)
					)
				)
			)
			(pin bidirectional line
				(at -30.48 0 0)
				(length 5.08)
				(name "GPIOL_67_CDI13"
					(effects
						(font
							(size 1.27 1.27)
						)
					)
				)
				(number "140"
					(effects
						(font
							(size 1.27 1.27)
						)
					)
				)
			)
			(pin bidirectional line
				(at -30.48 5.08 0)
				(length 5.08)
				(name "GPIOL_65"
					(effects
						(font
							(size 1.27 1.27)
						)
					)
				)
				(number "141"
					(effects
						(font
							(size 1.27 1.27)
						)
					)
				)
			)
			(pin bidirectional line
				(at -30.48 2.54 0)
				(length 5.08)
				(name "GPIOL_66_CDI12"
					(effects
						(font
							(size 1.27 1.27)
						)
					)
				)
				(number "142"
					(effects
						(font
							(size 1.27 1.27)
						)
					)
				)
			)
			(pin power_in line
				(at 0 15.24 270)
				(length 5.08)
				(name "VCCIO1E"
					(effects
						(font
							(size 1.27 1.27)
						)
					)
				)
				(number "143"
					(effects
						(font
							(size 1.27 1.27)
						)
					)
				)
			)
			(pin bidirectional line
				(at -30.48 7.62 0)
				(length 5.08)
				(name "GPIOL_64"
					(effects
						(font
							(size 1.27 1.27)
						)
					)
				)
				(number "144"
					(effects
						(font
							(size 1.27 1.27)
						)
					)
				)
			)
		)
		(symbol "T8Q144xx_5_1"
			(rectangle
				(start -25.4 10.16)
				(end 25.4 -10.16)
				(stroke
					(width 0.254)
					(type default)
				)
				(fill
					(type background)
				)
			)
			(pin bidirectional line
				(at 30.48 -5.08 180)
				(length 5.08)
				(name "GPIOR_88_CDI28"
					(effects
						(font
							(size 1.27 1.27)
						)
					)
				)
				(number "109"
					(effects
						(font
							(size 1.27 1.27)
						)
					)
				)
			)
			(pin bidirectional line
				(at 30.48 -2.54 180)
				(length 5.08)
				(name "GPIOR_87_CDI29"
					(effects
						(font
							(size 1.27 1.27)
						)
					)
				)
				(number "110"
					(effects
						(font
							(size 1.27 1.27)
						)
					)
				)
			)
			(pin bidirectional line
				(at 30.48 2.54 180)
				(length 5.08)
				(name "GPIOR_85"
					(effects
						(font
							(size 1.27 1.27)
						)
					)
				)
				(number "111"
					(effects
						(font
							(size 1.27 1.27)
						)
					)
				)
			)
			(pin bidirectional line
				(at 30.48 0 180)
				(length 5.08)
				(name "GPIOR_86"
					(effects
						(font
							(size 1.27 1.27)
						)
					)
				)
				(number "112"
					(effects
						(font
							(size 1.27 1.27)
						)
					)
				)
			)
			(pin bidirectional line
				(at 30.48 5.08 180)
				(length 5.08)
				(name "GPIOR_84"
					(effects
						(font
							(size 1.27 1.27)
						)
					)
				)
				(number "113"
					(effects
						(font
							(size 1.27 1.27)
						)
					)
				)
			)
			(pin bidirectional line
				(at 30.48 7.62 180)
				(length 5.08)
				(name "GPIOR_83"
					(effects
						(font
							(size 1.27 1.27)
						)
					)
				)
				(number "114"
					(effects
						(font
							(size 1.27 1.27)
						)
					)
				)
			)
			(pin bidirectional line
				(at -30.48 -7.62 0)
				(length 5.08)
				(name "GPIOR_82"
					(effects
						(font
							(size 1.27 1.27)
						)
					)
				)
				(number "115"
					(effects
						(font
							(size 1.27 1.27)
						)
					)
				)
			)
			(pin bidirectional line
				(at -30.48 -5.08 0)
				(length 5.08)
				(name "GPIOR_81_MREFCLK"
					(effects
						(font
							(size 1.27 1.27)
						)
					)
				)
				(number "116"
					(effects
						(font
							(size 1.27 1.27)
						)
					)
				)
			)
			(pin bidirectional line
				(at -30.48 -2.54 0)
				(length 5.08)
				(name "GPIOR_80"
					(effects
						(font
							(size 1.27 1.27)
						)
					)
				)
				(number "117"
					(effects
						(font
							(size 1.27 1.27)
						)
					)
				)
			)
			(pin bidirectional line
				(at -30.48 0 0)
				(length 5.08)
				(name "GPIOR_79_EXTFB1_CDI30"
					(effects
						(font
							(size 1.27 1.27)
						)
					)
				)
				(number "118"
					(effects
						(font
							(size 1.27 1.27)
						)
					)
				)
			)
			(pin bidirectional line
				(at -30.48 2.54 0)
				(length 5.08)
				(name "GPIOR_78_EXTFB0_CDI31"
					(effects
						(font
							(size 1.27 1.27)
						)
					)
				)
				(number "119"
					(effects
						(font
							(size 1.27 1.27)
						)
					)
				)
			)
			(pin power_in line
				(at 0 15.24 270)
				(length 5.08)
				(name "VCCIO3A"
					(effects
						(font
							(size 1.27 1.27)
						)
					)
				)
				(number "122"
					(effects
						(font
							(size 1.27 1.27)
						)
					)
				)
			)
			(pin bidirectional line
				(at -30.48 5.08 0)
				(length 5.08)
				(name "GPIOR_77_PLLIN1"
					(effects
						(font
							(size 1.27 1.27)
						)
					)
				)
				(number "123"
					(effects
						(font
							(size 1.27 1.27)
						)
					)
				)
			)
			(pin bidirectional line
				(at -30.48 7.62 0)
				(length 5.08)
				(name "GPIOR_76_PLLIN0"
					(effects
						(font
							(size 1.27 1.27)
						)
					)
				)
				(number "124"
					(effects
						(font
							(size 1.27 1.27)
						)
					)
				)
			)
		)
		(symbol "T8Q144xx_6_1"
			(rectangle
				(start -25.4 7.62)
				(end 25.4 -7.62)
				(stroke
					(width 0.254)
					(type default)
				)
				(fill
					(type background)
				)
			)
			(pin bidirectional line
				(at 30.48 5.08 180)
				(length 5.08)
				(name "GPIOR_113_CDI22"
					(effects
						(font
							(size 1.27 1.27)
						)
					)
				)
				(number "100"
					(effects
						(font
							(size 1.27 1.27)
						)
					)
				)
			)
			(pin bidirectional line
				(at -30.48 -5.08 0)
				(length 5.08)
				(name "GPIOR_112_CDI23"
					(effects
						(font
							(size 1.27 1.27)
						)
					)
				)
				(number "101"
					(effects
						(font
							(size 1.27 1.27)
						)
					)
				)
			)
			(pin bidirectional line
				(at -30.48 2.54 0)
				(length 5.08)
				(name "GPIOR_105_CDI24"
					(effects
						(font
							(size 1.27 1.27)
						)
					)
				)
				(number "102"
					(effects
						(font
							(size 1.27 1.27)
						)
					)
				)
			)
			(pin bidirectional line
				(at -30.48 5.08 0)
				(length 5.08)
				(name "GPIOR_104_CDI25"
					(effects
						(font
							(size 1.27 1.27)
						)
					)
				)
				(number "103"
					(effects
						(font
							(size 1.27 1.27)
						)
					)
				)
			)
			(pin bidirectional line
				(at -30.48 -2.54 0)
				(length 5.08)
				(name "GPIOR_95_CDI26"
					(effects
						(font
							(size 1.27 1.27)
						)
					)
				)
				(number "105"
					(effects
						(font
							(size 1.27 1.27)
						)
					)
				)
			)
			(pin bidirectional line
				(at -30.48 0 0)
				(length 5.08)
				(name "GPIOR_94_CDI27"
					(effects
						(font
							(size 1.27 1.27)
						)
					)
				)
				(number "106"
					(effects
						(font
							(size 1.27 1.27)
						)
					)
				)
			)
			(pin bidirectional line
				(at 30.48 -5.08 180)
				(length 5.08)
				(name "GPIOR_123_CLK12_CDI20"
					(effects
						(font
							(size 1.27 1.27)
						)
					)
				)
				(number "93"
					(effects
						(font
							(size 1.27 1.27)
						)
					)
				)
			)
			(pin power_in line
				(at 0 12.7 270)
				(length 5.08)
				(name "VCCIO3B_3C"
					(effects
						(font
							(size 1.27 1.27)
						)
					)
				)
				(number "95"
					(effects
						(font
							(size 1.27 1.27)
						)
					)
				)
			)
			(pin bidirectional line
				(at 30.48 -2.54 180)
				(length 5.08)
				(name "GPIOR_122_CLK13_CDI21"
					(effects
						(font
							(size 1.27 1.27)
						)
					)
				)
				(number "97"
					(effects
						(font
							(size 1.27 1.27)
						)
					)
				)
			)
			(pin bidirectional line
				(at 30.48 0 180)
				(length 5.08)
				(name "GPIOR_117_CTRL14"
					(effects
						(font
							(size 1.27 1.27)
						)
					)
				)
				(number "98"
					(effects
						(font
							(size 1.27 1.27)
						)
					)
				)
			)
			(pin bidirectional line
				(at 30.48 2.54 180)
				(length 5.08)
				(name "GPIOR_116_CTRL15"
					(effects
						(font
							(size 1.27 1.27)
						)
					)
				)
				(number "99"
					(effects
						(font
							(size 1.27 1.27)
						)
					)
				)
			)
		)
		(symbol "T8Q144xx_7_1"
			(rectangle
				(start -22.86 7.62)
				(end 22.86 -7.62)
				(stroke
					(width 0.254)
					(type default)
				)
				(fill
					(type background)
				)
			)
			(pin bidirectional line
				(at 27.94 -2.54 180)
				(length 5.08)
				(name "GPIOR_139"
					(effects
						(font
							(size 1.27 1.27)
						)
					)
				)
				(number "81"
					(effects
						(font
							(size 1.27 1.27)
						)
					)
				)
			)
			(pin bidirectional line
				(at 27.94 0 180)
				(length 5.08)
				(name "GPIOR_138"
					(effects
						(font
							(size 1.27 1.27)
						)
					)
				)
				(number "82"
					(effects
						(font
							(size 1.27 1.27)
						)
					)
				)
			)
			(pin bidirectional line
				(at 27.94 2.54 180)
				(length 5.08)
				(name "GPIOR_136_CDI16"
					(effects
						(font
							(size 1.27 1.27)
						)
					)
				)
				(number "83"
					(effects
						(font
							(size 1.27 1.27)
						)
					)
				)
			)
			(pin bidirectional line
				(at 27.94 5.08 180)
				(length 5.08)
				(name "GPIOR_135_CDI17"
					(effects
						(font
							(size 1.27 1.27)
						)
					)
				)
				(number "84"
					(effects
						(font
							(size 1.27 1.27)
						)
					)
				)
			)
			(pin bidirectional line
				(at -27.94 -5.08 0)
				(length 5.08)
				(name "GPIOR_133_CDI18"
					(effects
						(font
							(size 1.27 1.27)
						)
					)
				)
				(number "86"
					(effects
						(font
							(size 1.27 1.27)
						)
					)
				)
			)
			(pin bidirectional line
				(at -27.94 -2.54 0)
				(length 5.08)
				(name "GPIOR_132_CDI19"
					(effects
						(font
							(size 1.27 1.27)
						)
					)
				)
				(number "87"
					(effects
						(font
							(size 1.27 1.27)
						)
					)
				)
			)
			(pin bidirectional line
				(at -27.94 0 0)
				(length 5.08)
				(name "GPIOR_129_CTRL10"
					(effects
						(font
							(size 1.27 1.27)
						)
					)
				)
				(number "89"
					(effects
						(font
							(size 1.27 1.27)
						)
					)
				)
			)
			(pin bidirectional line
				(at -27.94 2.54 0)
				(length 5.08)
				(name "GPIOR_128_CTRL11"
					(effects
						(font
							(size 1.27 1.27)
						)
					)
				)
				(number "90"
					(effects
						(font
							(size 1.27 1.27)
						)
					)
				)
			)
			(pin power_in line
				(at 0 12.7 270)
				(length 5.08)
				(name "VCCIO3D"
					(effects
						(font
							(size 1.27 1.27)
						)
					)
				)
				(number "91"
					(effects
						(font
							(size 1.27 1.27)
						)
					)
				)
			)
			(pin bidirectional line
				(at -27.94 5.08 0)
				(length 5.08)
				(name "GPIOR_125_CLK10"
					(effects
						(font
							(size 1.27 1.27)
						)
					)
				)
				(number "92"
					(effects
						(font
							(size 1.27 1.27)
						)
					)
				)
			)
		)
		(symbol "T8Q144xx_8_1"
			(rectangle
				(start -22.86 7.62)
				(end 22.86 -7.62)
				(stroke
					(width 0.254)
					(type default)
				)
				(fill
					(type background)
				)
			)
			(pin bidirectional line
				(at 27.94 0 180)
				(length 5.08)
				(name "GPIOR_158_TEST_N"
					(effects
						(font
							(size 1.27 1.27)
						)
					)
				)
				(number "74"
					(effects
						(font
							(size 1.27 1.27)
						)
					)
				)
			)
			(pin bidirectional line
				(at 27.94 2.54 180)
				(length 5.08)
				(name "GPIOR_157_PLLIN"
					(effects
						(font
							(size 1.27 1.27)
						)
					)
				)
				(number "75"
					(effects
						(font
							(size 1.27 1.27)
						)
					)
				)
			)
			(pin bidirectional line
				(at 27.94 5.08 180)
				(length 5.08)
				(name "GPIOR_155"
					(effects
						(font
							(size 1.27 1.27)
						)
					)
				)
				(number "76"
					(effects
						(font
							(size 1.27 1.27)
						)
					)
				)
			)
			(pin bidirectional line
				(at -27.94 -2.54 0)
				(length 5.08)
				(name "GPIOR_154"
					(effects
						(font
							(size 1.27 1.27)
						)
					)
				)
				(number "77"
					(effects
						(font
							(size 1.27 1.27)
						)
					)
				)
			)
			(pin bidirectional line
				(at -27.94 0 0)
				(length 5.08)
				(name "GPIOR_151_CBUS0"
					(effects
						(font
							(size 1.27 1.27)
						)
					)
				)
				(number "78"
					(effects
						(font
							(size 1.27 1.27)
						)
					)
				)
			)
			(pin bidirectional line
				(at -27.94 2.54 0)
				(length 5.08)
				(name "GPIOR_150_CBUS1"
					(effects
						(font
							(size 1.27 1.27)
						)
					)
				)
				(number "79"
					(effects
						(font
							(size 1.27 1.27)
						)
					)
				)
			)
			(pin bidirectional line
				(at -27.94 5.08 0)
				(length 5.08)
				(name "GPIOR_149_CBUS2"
					(effects
						(font
							(size 1.27 1.27)
						)
					)
				)
				(number "80"
					(effects
						(font
							(size 1.27 1.27)
						)
					)
				)
			)
			(pin power_in line
				(at 0 12.7 270)
				(length 5.08)
				(name "VCCIO3E"
					(effects
						(font
							(size 1.27 1.27)
						)
					)
				)
				(number "88"
					(effects
						(font
							(size 1.27 1.27)
						)
					)
				)
			)
		)
		(symbol "T8Q144xx_9_1"
			(rectangle
				(start -25.4 15.24)
				(end 25.4 -15.24)
				(stroke
					(width 0.254)
					(type default)
				)
				(fill
					(type background)
				)
			)
			(pin bidirectional line
				(at -30.48 5.08 0)
				(length 5.08)
				(name "GPIOB_RXP00"
					(effects
						(font
							(size 1.27 1.27)
						)
					)
				)
				(number "55"
					(effects
						(font
							(size 1.27 1.27)
						)
					)
				)
			)
			(pin bidirectional line
				(at -30.48 2.54 0)
				(length 5.08)
				(name "GPIOB_RXN00"
					(effects
						(font
							(size 1.27 1.27)
						)
					)
				)
				(number "56"
					(effects
						(font
							(size 1.27 1.27)
						)
					)
				)
			)
			(pin bidirectional line
				(at -30.48 -2.54 0)
				(length 5.08)
				(name "GPIOB_RXP02"
					(effects
						(font
							(size 1.27 1.27)
						)
					)
				)
				(number "58"
					(effects
						(font
							(size 1.27 1.27)
						)
					)
				)
			)
			(pin bidirectional line
				(at -30.48 -5.08 0)
				(length 5.08)
				(name "GPIOB_RXN02"
					(effects
						(font
							(size 1.27 1.27)
						)
					)
				)
				(number "59"
					(effects
						(font
							(size 1.27 1.27)
						)
					)
				)
			)
			(pin bidirectional line
				(at -30.48 -12.7 0)
				(length 5.08)
				(name "GPIOB_RXN03"
					(effects
						(font
							(size 1.27 1.27)
						)
					)
				)
				(number "60"
					(effects
						(font
							(size 1.27 1.27)
						)
					)
				)
			)
			(pin bidirectional line
				(at -30.48 -10.16 0)
				(length 5.08)
				(name "GPIOB_RXP03"
					(effects
						(font
							(size 1.27 1.27)
						)
					)
				)
				(number "61"
					(effects
						(font
							(size 1.27 1.27)
						)
					)
				)
			)
			(pin power_in line
				(at 0 20.32 270)
				(length 5.08)
				(name "VCCIO4A"
					(effects
						(font
							(size 1.27 1.27)
						)
					)
				)
				(number "62"
					(effects
						(font
							(size 1.27 1.27)
						)
					)
				)
			)
			(pin passive line
				(at 0 20.32 270)
				(length 5.08) hide
				(name "VCCIO4A"
					(effects
						(font
							(size 1.27 1.27)
						)
					)
				)
				(number "63"
					(effects
						(font
							(size 1.27 1.27)
						)
					)
				)
			)
			(pin bidirectional line
				(at 30.48 10.16 180)
				(length 5.08)
				(name "GPIOB_RXN07"
					(effects
						(font
							(size 1.27 1.27)
						)
					)
				)
				(number "65"
					(effects
						(font
							(size 1.27 1.27)
						)
					)
				)
			)
			(pin bidirectional line
				(at 30.48 12.7 180)
				(length 5.08)
				(name "GPIOB_RXP07"
					(effects
						(font
							(size 1.27 1.27)
						)
					)
				)
				(number "66"
					(effects
						(font
							(size 1.27 1.27)
						)
					)
				)
			)
			(pin bidirectional line
				(at 30.48 5.08 180)
				(length 5.08)
				(name "GPIOB_RXP10"
					(effects
						(font
							(size 1.27 1.27)
						)
					)
				)
				(number "67"
					(effects
						(font
							(size 1.27 1.27)
						)
					)
				)
			)
			(pin bidirectional line
				(at 30.48 2.54 180)
				(length 5.08)
				(name "GPIOB_RXN10"
					(effects
						(font
							(size 1.27 1.27)
						)
					)
				)
				(number "68"
					(effects
						(font
							(size 1.27 1.27)
						)
					)
				)
			)
			(pin bidirectional line
				(at 30.48 -5.08 180)
				(length 5.08)
				(name "GPIOB_RXN12_EXTFB0"
					(effects
						(font
							(size 1.27 1.27)
						)
					)
				)
				(number "69"
					(effects
						(font
							(size 1.27 1.27)
						)
					)
				)
			)
			(pin bidirectional line
				(at 30.48 -2.54 180)
				(length 5.08)
				(name "GPIOB_RXP12_EXTFB0"
					(effects
						(font
							(size 1.27 1.27)
						)
					)
				)
				(number "70"
					(effects
						(font
							(size 1.27 1.27)
						)
					)
				)
			)
			(pin bidirectional line
				(at -30.48 12.7 0)
				(length 5.08)
				(name "GPIOB_CLKP0"
					(effects
						(font
							(size 1.27 1.27)
						)
					)
				)
				(number "71"
					(effects
						(font
							(size 1.27 1.27)
						)
					)
				)
			)
			(pin bidirectional line
				(at -30.48 10.16 0)
				(length 5.08)
				(name "GPIOB_CLKN0"
					(effects
						(font
							(size 1.27 1.27)
						)
					)
				)
				(number "72"
					(effects
						(font
							(size 1.27 1.27)
						)
					)
				)
			)
		)
		(symbol "T8Q144xx_10_1"
			(rectangle
				(start -17.78 15.24)
				(end 17.78 -15.24)
				(stroke
					(width 0.254)
					(type default)
				)
				(fill
					(type background)
				)
			)
			(pin passive line
				(at -22.86 -10.16 0)
				(length 5.08)
				(name "REF_RES"
					(effects
						(font
							(size 1.27 1.27)
						)
					)
				)
				(number "36"
					(effects
						(font
							(size 1.27 1.27)
						)
					)
				)
			)
			(pin bidirectional line
				(at -22.86 12.7 0)
				(length 5.08)
				(name "GPIOB_TXP00"
					(effects
						(font
							(size 1.27 1.27)
						)
					)
				)
				(number "38"
					(effects
						(font
							(size 1.27 1.27)
						)
					)
				)
			)
			(pin bidirectional line
				(at -22.86 10.16 0)
				(length 5.08)
				(name "GPIOB_TXN00"
					(effects
						(font
							(size 1.27 1.27)
						)
					)
				)
				(number "39"
					(effects
						(font
							(size 1.27 1.27)
						)
					)
				)
			)
			(pin bidirectional line
				(at -22.86 5.08 0)
				(length 5.08)
				(name "GPIOB_TXP02"
					(effects
						(font
							(size 1.27 1.27)
						)
					)
				)
				(number "40"
					(effects
						(font
							(size 1.27 1.27)
						)
					)
				)
			)
			(pin bidirectional line
				(at -22.86 2.54 0)
				(length 5.08)
				(name "GPIOB_TXN02"
					(effects
						(font
							(size 1.27 1.27)
						)
					)
				)
				(number "41"
					(effects
						(font
							(size 1.27 1.27)
						)
					)
				)
			)
			(pin bidirectional line
				(at -22.86 -2.54 0)
				(length 5.08)
				(name "GPIOB_TXP04"
					(effects
						(font
							(size 1.27 1.27)
						)
					)
				)
				(number "42"
					(effects
						(font
							(size 1.27 1.27)
						)
					)
				)
			)
			(pin bidirectional line
				(at -22.86 -5.08 0)
				(length 5.08)
				(name "GPIOB_TXN04"
					(effects
						(font
							(size 1.27 1.27)
						)
					)
				)
				(number "43"
					(effects
						(font
							(size 1.27 1.27)
						)
					)
				)
			)
			(pin bidirectional line
				(at 22.86 12.7 180)
				(length 5.08)
				(name "GPIOB_TXP06"
					(effects
						(font
							(size 1.27 1.27)
						)
					)
				)
				(number "45"
					(effects
						(font
							(size 1.27 1.27)
						)
					)
				)
			)
			(pin bidirectional line
				(at 22.86 10.16 180)
				(length 5.08)
				(name "GPIOB_TXN06"
					(effects
						(font
							(size 1.27 1.27)
						)
					)
				)
				(number "46"
					(effects
						(font
							(size 1.27 1.27)
						)
					)
				)
			)
			(pin bidirectional line
				(at 22.86 5.08 180)
				(length 5.08)
				(name "GPIOB_TXP09"
					(effects
						(font
							(size 1.27 1.27)
						)
					)
				)
				(number "47"
					(effects
						(font
							(size 1.27 1.27)
						)
					)
				)
			)
			(pin bidirectional line
				(at 22.86 2.54 180)
				(length 5.08)
				(name "GPIOB_TXN09"
					(effects
						(font
							(size 1.27 1.27)
						)
					)
				)
				(number "48"
					(effects
						(font
							(size 1.27 1.27)
						)
					)
				)
			)
			(pin power_in line
				(at 0 20.32 270)
				(length 5.08)
				(name "VCCIO4B"
					(effects
						(font
							(size 1.27 1.27)
						)
					)
				)
				(number "51"
					(effects
						(font
							(size 1.27 1.27)
						)
					)
				)
			)
			(pin passive line
				(at 0 20.32 270)
				(length 5.08) hide
				(name "VCCIO4B"
					(effects
						(font
							(size 1.27 1.27)
						)
					)
				)
				(number "52"
					(effects
						(font
							(size 1.27 1.27)
						)
					)
				)
			)
			(pin bidirectional line
				(at 22.86 -2.54 180)
				(length 5.08)
				(name "GPIOB_TXP11"
					(effects
						(font
							(size 1.27 1.27)
						)
					)
				)
				(number "53"
					(effects
						(font
							(size 1.27 1.27)
						)
					)
				)
			)
			(pin bidirectional line
				(at 22.86 -5.08 180)
				(length 5.08)
				(name "GPIOB_TXN11"
					(effects
						(font
							(size 1.27 1.27)
						)
					)
				)
				(number "54"
					(effects
						(font
							(size 1.27 1.27)
						)
					)
				)
			)
		)
		(symbol "T8Q144xx_11_1"
			(rectangle
				(start -17.78 7.62)
				(end 17.78 -7.62)
				(stroke
					(width 0.254)
					(type default)
				)
				(fill
					(type background)
				)
			)
			(pin power_in line
				(at 0 -12.7 90)
				(length 5.08)
				(name "GND"
					(effects
						(font
							(size 1.27 1.27)
						)
					)
				)
				(number "1"
					(effects
						(font
							(size 1.27 1.27)
						)
					)
				)
			)
			(pin passive line
				(at 0 -12.7 90)
				(length 5.08) hide
				(name "GND"
					(effects
						(font
							(size 1.27 1.27)
						)
					)
				)
				(number "104"
					(effects
						(font
							(size 1.27 1.27)
						)
					)
				)
			)
			(pin power_in line
				(at 15.24 12.7 270)
				(length 5.08)
				(name "VCCA_TR"
					(effects
						(font
							(size 1.27 1.27)
						)
					)
				)
				(number "107"
					(effects
						(font
							(size 1.27 1.27)
						)
					)
				)
			)
			(pin passive line
				(at 0 -12.7 90)
				(length 5.08) hide
				(name "GND"
					(effects
						(font
							(size 1.27 1.27)
						)
					)
				)
				(number "108"
					(effects
						(font
							(size 1.27 1.27)
						)
					)
				)
			)
			(pin passive line
				(at 0 -12.7 90)
				(length 5.08) hide
				(name "GND"
					(effects
						(font
							(size 1.27 1.27)
						)
					)
				)
				(number "120"
					(effects
						(font
							(size 1.27 1.27)
						)
					)
				)
			)
			(pin passive line
				(at 0 -12.7 90)
				(length 5.08) hide
				(name "GND"
					(effects
						(font
							(size 1.27 1.27)
						)
					)
				)
				(number "121"
					(effects
						(font
							(size 1.27 1.27)
						)
					)
				)
			)
			(pin power_in line
				(at 0 12.7 270)
				(length 5.08)
				(name "VCC"
					(effects
						(font
							(size 1.27 1.27)
						)
					)
				)
				(number "125"
					(effects
						(font
							(size 1.27 1.27)
						)
					)
				)
			)
			(pin passive line
				(at 0 -12.7 90)
				(length 5.08) hide
				(name "GND"
					(effects
						(font
							(size 1.27 1.27)
						)
					)
				)
				(number "126"
					(effects
						(font
							(size 1.27 1.27)
						)
					)
				)
			)
			(pin passive line
				(at 0 -12.7 90)
				(length 5.08) hide
				(name "GND"
					(effects
						(font
							(size 1.27 1.27)
						)
					)
				)
				(number "127"
					(effects
						(font
							(size 1.27 1.27)
						)
					)
				)
			)
			(pin power_in line
				(at 2.54 12.7 270)
				(length 5.08)
				(name "VCC"
					(effects
						(font
							(size 1.27 1.27)
						)
					)
				)
				(number "128"
					(effects
						(font
							(size 1.27 1.27)
						)
					)
				)
			)
			(pin passive line
				(at 0 -12.7 90)
				(length 5.08) hide
				(name "GND"
					(effects
						(font
							(size 1.27 1.27)
						)
					)
				)
				(number "129"
					(effects
						(font
							(size 1.27 1.27)
						)
					)
				)
			)
			(pin power_in line
				(at -15.24 12.7 270)
				(length 5.08)
				(name "VCC"
					(effects
						(font
							(size 1.27 1.27)
						)
					)
				)
				(number "13"
					(effects
						(font
							(size 1.27 1.27)
						)
					)
				)
			)
			(pin power_in line
				(at 5.08 12.7 270)
				(length 5.08)
				(name "VCC"
					(effects
						(font
							(size 1.27 1.27)
						)
					)
				)
				(number "130"
					(effects
						(font
							(size 1.27 1.27)
						)
					)
				)
			)
			(pin passive line
				(at 0 -12.7 90)
				(length 5.08) hide
				(name "GND"
					(effects
						(font
							(size 1.27 1.27)
						)
					)
				)
				(number "133"
					(effects
						(font
							(size 1.27 1.27)
						)
					)
				)
			)
			(pin power_in line
				(at 12.7 12.7 270)
				(length 5.08)
				(name "VCCA_TL"
					(effects
						(font
							(size 1.27 1.27)
						)
					)
				)
				(number "2"
					(effects
						(font
							(size 1.27 1.27)
						)
					)
				)
			)
			(pin power_in line
				(at -12.7 12.7 270)
				(length 5.08)
				(name "VCC"
					(effects
						(font
							(size 1.27 1.27)
						)
					)
				)
				(number "22"
					(effects
						(font
							(size 1.27 1.27)
						)
					)
				)
			)
			(pin passive line
				(at 0 -12.7 90)
				(length 5.08) hide
				(name "GND"
					(effects
						(font
							(size 1.27 1.27)
						)
					)
				)
				(number "37"
					(effects
						(font
							(size 1.27 1.27)
						)
					)
				)
			)
			(pin passive line
				(at 0 -12.7 90)
				(length 5.08) hide
				(name "GND"
					(effects
						(font
							(size 1.27 1.27)
						)
					)
				)
				(number "44"
					(effects
						(font
							(size 1.27 1.27)
						)
					)
				)
			)
			(pin power_in line
				(at -10.16 12.7 270)
				(length 5.08)
				(name "VCC"
					(effects
						(font
							(size 1.27 1.27)
						)
					)
				)
				(number "49"
					(effects
						(font
							(size 1.27 1.27)
						)
					)
				)
			)
			(pin passive line
				(at 0 -12.7 90)
				(length 5.08) hide
				(name "GND"
					(effects
						(font
							(size 1.27 1.27)
						)
					)
				)
				(number "5"
					(effects
						(font
							(size 1.27 1.27)
						)
					)
				)
			)
			(pin passive line
				(at 0 -12.7 90)
				(length 5.08) hide
				(name "GND"
					(effects
						(font
							(size 1.27 1.27)
						)
					)
				)
				(number "50"
					(effects
						(font
							(size 1.27 1.27)
						)
					)
				)
			)
			(pin power_in line
				(at -7.62 12.7 270)
				(length 5.08)
				(name "VCC"
					(effects
						(font
							(size 1.27 1.27)
						)
					)
				)
				(number "57"
					(effects
						(font
							(size 1.27 1.27)
						)
					)
				)
			)
			(pin passive line
				(at 0 -12.7 90)
				(length 5.08) hide
				(name "GND"
					(effects
						(font
							(size 1.27 1.27)
						)
					)
				)
				(number "64"
					(effects
						(font
							(size 1.27 1.27)
						)
					)
				)
			)
			(pin power_in line
				(at 10.16 12.7 270)
				(length 5.08)
				(name "VCCA_BR"
					(effects
						(font
							(size 1.27 1.27)
						)
					)
				)
				(number "73"
					(effects
						(font
							(size 1.27 1.27)
						)
					)
				)
			)
			(pin power_in line
				(at -5.08 12.7 270)
				(length 5.08)
				(name "VCC"
					(effects
						(font
							(size 1.27 1.27)
						)
					)
				)
				(number "85"
					(effects
						(font
							(size 1.27 1.27)
						)
					)
				)
			)
			(pin passive line
				(at 0 -12.7 90)
				(length 5.08) hide
				(name "GND"
					(effects
						(font
							(size 1.27 1.27)
						)
					)
				)
				(number "9"
					(effects
						(font
							(size 1.27 1.27)
						)
					)
				)
			)
			(pin passive line
				(at 0 -12.7 90)
				(length 5.08) hide
				(name "GND"
					(effects
						(font
							(size 1.27 1.27)
						)
					)
				)
				(number "94"
					(effects
						(font
							(size 1.27 1.27)
						)
					)
				)
			)
			(pin power_in line
				(at -2.54 12.7 270)
				(length 5.08)
				(name "VCC"
					(effects
						(font
							(size 1.27 1.27)
						)
					)
				)
				(number "96"
					(effects
						(font
							(size 1.27 1.27)
						)
					)
				)
			)
		)
	)
)