(kicad_symbol_lib
	(version 20231120)
	(generator "kicad_symbol_editor")
	(generator_version "8.0")
	(symbol "STM32WBA52CEUx"
		(exclude_from_sim no)
		(in_bom yes)
		(on_board yes)
		(property "Reference" "U"
			(at -17.78 44.45 0)
			(effects
				(font
					(size 1.27 1.27)
				)
				(justify left)
			)
		)
		(property "Value" "STM32WBA52CEUx"
			(at 12.7 44.45 0)
			(effects
				(font
					(size 1.27 1.27)
				)
				(justify left)
			)
		)
		(property "Footprint" "Package_DFN_QFN:QFN-48-1EP_7x7mm_P0.5mm_EP5.6x5.6mm"
			(at -17.78 -40.64 0)
			(effects
				(font
					(size 1.27 1.27)
				)
				(justify right)
				(hide yes)
			)
		)
		(property "Datasheet" "https://www.st.com/resource/en/datasheet/stm32wba52ce.pdf"
			(at 0 0 0)
			(effects
				(font
					(size 1.27 1.27)
				)
				(hide yes)
			)
		)
		(property "Description" "STMicroelectronics Arm Cortex-M33 MCU, 512KB flash, 96KB RAM, 100 MHz, 1.71-3.6V, 37 GPIO, UFQFPN48"
			(at 0 0 0)
			(effects
				(font
					(size 1.27 1.27)
				)
				(hide yes)
			)
		)
		(property "ki_locked" ""
			(at 0 0 0)
			(effects
				(font
					(size 1.27 1.27)
				)
			)
		)
		(property "ki_keywords" "Arm Cortex-M33 STM32WBA STM32WBAx2"
			(at 0 0 0)
			(effects
				(font
					(size 1.27 1.27)
				)
				(hide yes)
			)
		)
		(property "ki_fp_filters" "QFN*1EP*7x7mm*P0.5mm*"
			(at 0 0 0)
			(effects
				(font
					(size 1.27 1.27)
				)
				(hide yes)
			)
		)
		(symbol "STM32WBA52CEUx_0_1"
			(rectangle
				(start -17.78 -40.64)
				(end 20.32 43.18)
				(stroke
					(width 0.254)
					(type default)
				)
				(fill
					(type background)
				)
			)
		)
		(symbol "STM32WBA52CEUx_1_1"
			(pin bidirectional line
				(at -20.32 -22.86 0)
				(length 2.54)
				(name "PB12"
					(effects
						(font
							(size 1.27 1.27)
						)
					)
				)
				(number "1"
					(effects
						(font
							(size 1.27 1.27)
						)
					)
				)
				(alternate "SPI1_RDY" bidirectional line)
				(alternate "TIM2_CH1" bidirectional line)
				(alternate "TIM2_ETR" bidirectional line)
				(alternate "TIM3_ETR" bidirectional line)
				(alternate "TSC_SYNC" bidirectional line)
				(alternate "USART1_TX" bidirectional line)
			)
			(pin bidirectional line
				(at 22.86 35.56 180)
				(length 2.54)
				(name "PA2"
					(effects
						(font
							(size 1.27 1.27)
						)
					)
				)
				(number "10"
					(effects
						(font
							(size 1.27 1.27)
						)
					)
				)
				(alternate "ADC4_IN7" bidirectional line)
				(alternate "LPUART1_TX" bidirectional line)
				(alternate "PWR_WKUP4" bidirectional line)
				(alternate "RCC_LSCO" bidirectional line)
				(alternate "TIM16_CH1" bidirectional line)
				(alternate "TIM1_BKIN" bidirectional line)
				(alternate "TIM3_CH1" bidirectional line)
				(alternate "TSC_G4_IO4" bidirectional line)
				(alternate "USART1_DE" bidirectional line)
				(alternate "USART1_RTS" bidirectional line)
			)
			(pin power_in line
				(at -7.62 45.72 270)
				(length 2.54)
				(name "VDD"
					(effects
						(font
							(size 1.27 1.27)
						)
					)
				)
				(number "11"
					(effects
						(font
							(size 1.27 1.27)
						)
					)
				)
			)
			(pin bidirectional line
				(at 22.86 38.1 180)
				(length 2.54)
				(name "PA1"
					(effects
						(font
							(size 1.27 1.27)
						)
					)
				)
				(number "12"
					(effects
						(font
							(size 1.27 1.27)
						)
					)
				)
				(alternate "ADC4_IN8" bidirectional line)
				(alternate "LPTIM2_CH2" bidirectional line)
				(alternate "LPUART1_RX" bidirectional line)
				(alternate "PWR_WKUP3" bidirectional line)
				(alternate "SPI1_RDY" bidirectional line)
				(alternate "TIM17_CH1" bidirectional line)
				(alternate "TIM1_CH1N" bidirectional line)
				(alternate "TIM3_CH2" bidirectional line)
				(alternate "TSC_G2_IO1" bidirectional line)
				(alternate "USART1_CK" bidirectional line)
			)
			(pin bidirectional line
				(at 22.86 40.64 180)
				(length 2.54)
				(name "PA0"
					(effects
						(font
							(size 1.27 1.27)
						)
					)
				)
				(number "13"
					(effects
						(font
							(size 1.27 1.27)
						)
					)
				)
				(alternate "ADC4_IN9" bidirectional line)
				(alternate "LPTIM1_IN1" bidirectional line)
				(alternate "LPUART1_CTS" bidirectional line)
				(alternate "PWR_WKUP1" bidirectional line)
				(alternate "SPI3_SCK" bidirectional line)
				(alternate "TIM1_CH2N" bidirectional line)
				(alternate "TIM3_CH3" bidirectional line)
				(alternate "TIM3_ETR" bidirectional line)
				(alternate "TSC_G2_IO2" bidirectional line)
			)
			(pin bidirectional line
				(at -20.32 -15.24 0)
				(length 2.54)
				(name "PB9"
					(effects
						(font
							(size 1.27 1.27)
						)
					)
				)
				(number "14"
					(effects
						(font
							(size 1.27 1.27)
						)
					)
				)
				(alternate "ADC4_IN10" bidirectional line)
				(alternate "IR_OUT" bidirectional line)
				(alternate "LPTIM2_IN1" bidirectional line)
				(alternate "LPUART1_DE" bidirectional line)
				(alternate "LPUART1_RTS" bidirectional line)
				(alternate "PWR_WKUP8" bidirectional line)
				(alternate "SPI3_MISO" bidirectional line)
				(alternate "TIM16_CH1" bidirectional line)
				(alternate "TIM1_CH3N" bidirectional line)
				(alternate "TIM3_CH4" bidirectional line)
				(alternate "TSC_G2_IO3" bidirectional line)
			)
			(pin bidirectional line
				(at -20.32 -12.7 0)
				(length 2.54)
				(name "PB8"
					(effects
						(font
							(size 1.27 1.27)
						)
					)
				)
				(number "15"
					(effects
						(font
							(size 1.27 1.27)
						)
					)
				)
				(alternate "LPTIM1_ETR" bidirectional line)
				(alternate "PWR_PVD_IN" bidirectional line)
				(alternate "SPI3_MOSI" bidirectional line)
				(alternate "TIM16_CH1N" bidirectional line)
				(alternate "TIM1_CH1" bidirectional line)
				(alternate "TIM3_ETR" bidirectional line)
				(alternate "TSC_G2_IO4" bidirectional line)
				(alternate "USART2_RX" bidirectional line)
			)
			(pin bidirectional line
				(at -20.32 12.7 0)
				(length 2.54)
				(name "PC15"
					(effects
						(font
							(size 1.27 1.27)
						)
					)
				)
				(number "16"
					(effects
						(font
							(size 1.27 1.27)
						)
					)
				)
				(alternate "ADC4_EXTI15" bidirectional line)
				(alternate "RCC_OSC32_OUT" bidirectional line)
			)
			(pin bidirectional line
				(at -20.32 15.24 0)
				(length 2.54)
				(name "PC14"
					(effects
						(font
							(size 1.27 1.27)
						)
					)
				)
				(number "17"
					(effects
						(font
							(size 1.27 1.27)
						)
					)
				)
				(alternate "RCC_OSC32_IN" bidirectional line)
			)
			(pin bidirectional line
				(at -20.32 17.78 0)
				(length 2.54)
				(name "PC13"
					(effects
						(font
							(size 1.27 1.27)
						)
					)
				)
				(number "18"
					(effects
						(font
							(size 1.27 1.27)
						)
					)
				)
				(alternate "PWR_WKUP2" bidirectional line)
				(alternate "RTC_OUT1" bidirectional line)
				(alternate "RTC_TS" bidirectional line)
				(alternate "TAMP_IN4" bidirectional line)
				(alternate "TAMP_OUT5" bidirectional line)
				(alternate "TIM1_BKIN2" bidirectional line)
				(alternate "TSC_G5_IO1" bidirectional line)
			)
			(pin bidirectional line
				(at -20.32 -10.16 0)
				(length 2.54)
				(name "PB7"
					(effects
						(font
							(size 1.27 1.27)
						)
					)
				)
				(number "19"
					(effects
						(font
							(size 1.27 1.27)
						)
					)
				)
				(alternate "PWR_WKUP5" bidirectional line)
				(alternate "TAMP_IN5" bidirectional line)
				(alternate "TAMP_OUT4" bidirectional line)
				(alternate "TIM1_CH4N" bidirectional line)
				(alternate "TSC_G5_IO2" bidirectional line)
			)
			(pin bidirectional line
				(at -20.32 -20.32 0)
				(length 2.54)
				(name "PB11"
					(effects
						(font
							(size 1.27 1.27)
						)
					)
				)
				(number "2"
					(effects
						(font
							(size 1.27 1.27)
						)
					)
				)
				(alternate "LPTIM1_CH1" bidirectional line)
				(alternate "LPTIM1_ETR" bidirectional line)
				(alternate "LPUART1_TX" bidirectional line)
			)
			(pin bidirectional line
				(at -20.32 -7.62 0)
				(length 2.54)
				(name "PB6"
					(effects
						(font
							(size 1.27 1.27)
						)
					)
				)
				(number "20"
					(effects
						(font
							(size 1.27 1.27)
						)
					)
				)
				(alternate "PWR_WKUP3" bidirectional line)
				(alternate "TIM2_CH1" bidirectional line)
				(alternate "TIM2_ETR" bidirectional line)
				(alternate "TSC_G5_IO3" bidirectional line)
			)
			(pin bidirectional line
				(at -20.32 -5.08 0)
				(length 2.54)
				(name "PB5"
					(effects
						(font
							(size 1.27 1.27)
						)
					)
				)
				(number "21"
					(effects
						(font
							(size 1.27 1.27)
						)
					)
				)
				(alternate "LPUART1_TX" bidirectional line)
				(alternate "TIM3_CH1" bidirectional line)
				(alternate "TSC_G5_IO4" bidirectional line)
			)
			(pin power_in line
				(at -5.08 45.72 270)
				(length 2.54)
				(name "VDD"
					(effects
						(font
							(size 1.27 1.27)
						)
					)
				)
				(number "22"
					(effects
						(font
							(size 1.27 1.27)
						)
					)
				)
			)
			(pin bidirectional line
				(at -20.32 -2.54 0)
				(length 2.54)
				(name "PB4"
					(effects
						(font
							(size 1.27 1.27)
						)
					)
				)
				(number "23"
					(effects
						(font
							(size 1.27 1.27)
						)
					)
				)
				(alternate "DEBUG_JTRST" bidirectional line)
				(alternate "LPTIM2_IN2" bidirectional line)
				(alternate "SPI1_SCK" bidirectional line)
				(alternate "TIM17_CH1" bidirectional line)
				(alternate "TIM1_CH3" bidirectional line)
				(alternate "TSC_G3_IO1" bidirectional line)
				(alternate "USART2_RX" bidirectional line)
			)
			(pin bidirectional line
				(at -20.32 0 0)
				(length 2.54)
				(name "PB3"
					(effects
						(font
							(size 1.27 1.27)
						)
					)
				)
				(number "24"
					(effects
						(font
							(size 1.27 1.27)
						)
					)
				)
				(alternate "DEBUG_JTDO-SWO" bidirectional line)
				(alternate "I2C1_SDA" bidirectional line)
				(alternate "LPTIM1_IN2" bidirectional line)
				(alternate "SPI1_MISO" bidirectional line)
				(alternate "TIM17_CH1N" bidirectional line)
				(alternate "TIM1_CH4" bidirectional line)
				(alternate "TSC_G3_IO2" bidirectional line)
				(alternate "USART2_CK" bidirectional line)
			)
			(pin bidirectional line
				(at 22.86 5.08 180)
				(length 2.54)
				(name "PA15"
					(effects
						(font
							(size 1.27 1.27)
						)
					)
				)
				(number "25"
					(effects
						(font
							(size 1.27 1.27)
						)
					)
				)
				(alternate "ADC4_EXTI15" bidirectional line)
				(alternate "DEBUG_JTDI" bidirectional line)
				(alternate "I2C1_SCL" bidirectional line)
				(alternate "LPTIM1_CH2" bidirectional line)
				(alternate "SPI1_MOSI" bidirectional line)
				(alternate "TIM17_BKIN" bidirectional line)
				(alternate "TIM1_ETR" bidirectional line)
				(alternate "TSC_G3_IO3" bidirectional line)
				(alternate "USART2_DE" bidirectional line)
				(alternate "USART2_RTS" bidirectional line)
			)
			(pin bidirectional line
				(at 22.86 7.62 180)
				(length 2.54)
				(name "PA14"
					(effects
						(font
							(size 1.27 1.27)
						)
					)
				)
				(number "26"
					(effects
						(font
							(size 1.27 1.27)
						)
					)
				)
				(alternate "DEBUG_JTCK-SWCLK" bidirectional line)
				(alternate "TAMP_IN3" bidirectional line)
				(alternate "TAMP_OUT6" bidirectional line)
				(alternate "USART2_TX" bidirectional line)
			)
			(pin bidirectional line
				(at 22.86 10.16 180)
				(length 2.54)
				(name "PA13"
					(effects
						(font
							(size 1.27 1.27)
						)
					)
				)
				(number "27"
					(effects
						(font
							(size 1.27 1.27)
						)
					)
				)
				(alternate "DEBUG_JTMS-SWDIO" bidirectional line)
				(alternate "IR_OUT" bidirectional line)
			)
			(pin bidirectional line
				(at 22.86 12.7 180)
				(length 2.54)
				(name "PA12"
					(effects
						(font
							(size 1.27 1.27)
						)
					)
				)
				(number "28"
					(effects
						(font
							(size 1.27 1.27)
						)
					)
				)
				(alternate "PWR_WKUP6" bidirectional line)
				(alternate "RF_ANTSW0" bidirectional line)
				(alternate "SPI1_NSS" bidirectional line)
				(alternate "TIM1_CH2" bidirectional line)
				(alternate "TSC_G3_IO4" bidirectional line)
				(alternate "USART2_TX" bidirectional line)
			)
			(pin bidirectional line
				(at 22.86 15.24 180)
				(length 2.54)
				(name "PA11"
					(effects
						(font
							(size 1.27 1.27)
						)
					)
				)
				(number "29"
					(effects
						(font
							(size 1.27 1.27)
						)
					)
				)
				(alternate "LPTIM2_CH1" bidirectional line)
				(alternate "RF_ANTSW1" bidirectional line)
				(alternate "TIM1_CH1" bidirectional line)
				(alternate "USART2_RX" bidirectional line)
			)
			(pin bidirectional line
				(at 22.86 22.86 180)
				(length 2.54)
				(name "PA8"
					(effects
						(font
							(size 1.27 1.27)
						)
					)
				)
				(number "3"
					(effects
						(font
							(size 1.27 1.27)
						)
					)
				)
				(alternate "ADC4_IN1" bidirectional line)
				(alternate "LPTIM1_CH2" bidirectional line)
				(alternate "RCC_MCO" bidirectional line)
				(alternate "SPI3_RDY" bidirectional line)
				(alternate "TIM2_CH2" bidirectional line)
				(alternate "TSC_G1_IO1" bidirectional line)
				(alternate "USART1_RX" bidirectional line)
			)
			(pin bidirectional line
				(at -20.32 2.54 0)
				(length 2.54)
				(name "PB2"
					(effects
						(font
							(size 1.27 1.27)
						)
					)
				)
				(number "30"
					(effects
						(font
							(size 1.27 1.27)
						)
					)
				)
				(alternate "I2C1_SCL" bidirectional line)
				(alternate "I2C3_SCL" bidirectional line)
				(alternate "PWR_WKUP1" bidirectional line)
				(alternate "RF_ANTSW2" bidirectional line)
				(alternate "RTC_OUT2" bidirectional line)
				(alternate "TIM1_CH1N" bidirectional line)
				(alternate "USART2_CTS" bidirectional line)
			)
			(pin bidirectional line
				(at -20.32 5.08 0)
				(length 2.54)
				(name "PB1"
					(effects
						(font
							(size 1.27 1.27)
						)
					)
				)
				(number "31"
					(effects
						(font
							(size 1.27 1.27)
						)
					)
				)
				(alternate "I2C1_SDA" bidirectional line)
				(alternate "I2C3_SDA" bidirectional line)
				(alternate "PWR_WKUP4" bidirectional line)
				(alternate "TIM1_CH2N" bidirectional line)
				(alternate "USART2_DE" bidirectional line)
				(alternate "USART2_RTS" bidirectional line)
			)
			(pin bidirectional line
				(at -20.32 7.62 0)
				(length 2.54)
				(name "PB0"
					(effects
						(font
							(size 1.27 1.27)
						)
					)
				)
				(number "32"
					(effects
						(font
							(size 1.27 1.27)
						)
					)
				)
				(alternate "LPTIM2_IN2" bidirectional line)
				(alternate "TIM1_CH3N" bidirectional line)
				(alternate "USART2_TX" bidirectional line)
			)
			(pin bidirectional line
				(at -20.32 -30.48 0)
				(length 2.54)
				(name "PB15"
					(effects
						(font
							(size 1.27 1.27)
						)
					)
				)
				(number "33"
					(effects
						(font
							(size 1.27 1.27)
						)
					)
				)
				(alternate "ADC4_EXTI15" bidirectional line)
				(alternate "I2C1_SMBA" bidirectional line)
				(alternate "I2C3_SMBA" bidirectional line)
				(alternate "LPUART1_CTS" bidirectional line)
				(alternate "TIM16_BKIN" bidirectional line)
				(alternate "TIM1_BKIN2" bidirectional line)
				(alternate "USART2_CTS" bidirectional line)
			)
			(pin bidirectional line
				(at -20.32 22.86 0)
				(length 2.54)
				(name "PH3"
					(effects
						(font
							(size 1.27 1.27)
						)
					)
				)
				(number "34"
					(effects
						(font
							(size 1.27 1.27)
						)
					)
				)
				(alternate "TAMP_IN2" bidirectional line)
				(alternate "TAMP_OUT1" bidirectional line)
			)
			(pin power_in line
				(at -2.54 45.72 270)
				(length 2.54)
				(name "VDD"
					(effects
						(font
							(size 1.27 1.27)
						)
					)
				)
				(number "35"
					(effects
						(font
							(size 1.27 1.27)
						)
					)
				)
			)
			(pin input line
				(at -20.32 40.64 0)
				(length 2.54)
				(name "NRST"
					(effects
						(font
							(size 1.27 1.27)
						)
					)
				)
				(number "36"
					(effects
						(font
							(size 1.27 1.27)
						)
					)
				)
			)
			(pin bidirectional line
				(at -20.32 27.94 0)
				(length 2.54)
				(name "RF"
					(effects
						(font
							(size 1.27 1.27)
						)
					)
				)
				(number "37"
					(effects
						(font
							(size 1.27 1.27)
						)
					)
				)
			)
			(pin power_in line
				(at 5.08 45.72 270)
				(length 2.54)
				(name "VDDHPA"
					(effects
						(font
							(size 1.27 1.27)
						)
					)
				)
				(number "38"
					(effects
						(font
							(size 1.27 1.27)
						)
					)
				)
			)
			(pin power_in line
				(at 7.62 45.72 270)
				(length 2.54)
				(name "VDDRF"
					(effects
						(font
							(size 1.27 1.27)
						)
					)
				)
				(number "39"
					(effects
						(font
							(size 1.27 1.27)
						)
					)
				)
			)
			(pin bidirectional line
				(at 22.86 25.4 180)
				(length 2.54)
				(name "PA7"
					(effects
						(font
							(size 1.27 1.27)
						)
					)
				)
				(number "4"
					(effects
						(font
							(size 1.27 1.27)
						)
					)
				)
				(alternate "ADC4_IN2" bidirectional line)
				(alternate "I2C3_SDA" bidirectional line)
				(alternate "PWR_WKUP8" bidirectional line)
				(alternate "TAMP_IN1" bidirectional line)
				(alternate "TAMP_OUT2" bidirectional line)
				(alternate "TIM2_CH3" bidirectional line)
				(alternate "TSC_G1_IO2" bidirectional line)
				(alternate "USART1_CTS" bidirectional line)
			)
			(pin input line
				(at -20.32 33.02 0)
				(length 2.54)
				(name "OSC_OUT"
					(effects
						(font
							(size 1.27 1.27)
						)
					)
				)
				(number "40"
					(effects
						(font
							(size 1.27 1.27)
						)
					)
				)
				(alternate "RCC_OSC_OUT" bidirectional line)
			)
			(pin input line
				(at -20.32 35.56 0)
				(length 2.54)
				(name "OSC_IN"
					(effects
						(font
							(size 1.27 1.27)
						)
					)
				)
				(number "41"
					(effects
						(font
							(size 1.27 1.27)
						)
					)
				)
				(alternate "RCC_OSC_IN" bidirectional line)
			)
			(pin power_in line
				(at 10.16 45.72 270)
				(length 2.54)
				(name "VDDRFPA"
					(effects
						(font
							(size 1.27 1.27)
						)
					)
				)
				(number "42"
					(effects
						(font
							(size 1.27 1.27)
						)
					)
				)
			)
			(pin power_in line
				(at 0 45.72 270)
				(length 2.54)
				(name "VDD"
					(effects
						(font
							(size 1.27 1.27)
						)
					)
				)
				(number "43"
					(effects
						(font
							(size 1.27 1.27)
						)
					)
				)
			)
			(pin power_out line
				(at -20.32 -35.56 0)
				(length 2.54)
				(name "VCAP"
					(effects
						(font
							(size 1.27 1.27)
						)
					)
				)
				(number "44"
					(effects
						(font
							(size 1.27 1.27)
						)
					)
				)
			)
			(pin bidirectional line
				(at 22.86 17.78 180)
				(length 2.54)
				(name "PA10"
					(effects
						(font
							(size 1.27 1.27)
						)
					)
				)
				(number "45"
					(effects
						(font
							(size 1.27 1.27)
						)
					)
				)
				(alternate "LPUART1_RX" bidirectional line)
				(alternate "TIM3_CH1" bidirectional line)
			)
			(pin bidirectional line
				(at 22.86 20.32 180)
				(length 2.54)
				(name "PA9"
					(effects
						(font
							(size 1.27 1.27)
						)
					)
				)
				(number "46"
					(effects
						(font
							(size 1.27 1.27)
						)
					)
				)
				(alternate "LPUART1_DE" bidirectional line)
				(alternate "LPUART1_RTS" bidirectional line)
				(alternate "TIM3_CH2" bidirectional line)
			)
			(pin bidirectional line
				(at -20.32 -27.94 0)
				(length 2.54)
				(name "PB14"
					(effects
						(font
							(size 1.27 1.27)
						)
					)
				)
				(number "47"
					(effects
						(font
							(size 1.27 1.27)
						)
					)
				)
				(alternate "PWR_WKUP7" bidirectional line)
				(alternate "RTC_REFIN" bidirectional line)
				(alternate "TIM3_CH3" bidirectional line)
				(alternate "TSC_G6_IO1" bidirectional line)
				(alternate "USART1_TX" bidirectional line)
			)
			(pin bidirectional line
				(at -20.32 -25.4 0)
				(length 2.54)
				(name "PB13"
					(effects
						(font
							(size 1.27 1.27)
						)
					)
				)
				(number "48"
					(effects
						(font
							(size 1.27 1.27)
						)
					)
				)
				(alternate "TIM3_CH4" bidirectional line)
				(alternate "TSC_G6_IO2" bidirectional line)
			)
			(pin power_in line
				(at 2.54 -43.18 90)
				(length 2.54)
				(name "VSS/VSS"
					(effects
						(font
							(size 1.27 1.27)
						)
					)
				)
				(number "49"
					(effects
						(font
							(size 1.27 1.27)
						)
					)
				)
			)
			(pin bidirectional line
				(at 22.86 27.94 180)
				(length 2.54)
				(name "PA6"
					(effects
						(font
							(size 1.27 1.27)
						)
					)
				)
				(number "5"
					(effects
						(font
							(size 1.27 1.27)
						)
					)
				)
				(alternate "ADC4_IN3" bidirectional line)
				(alternate "I2C3_SCL" bidirectional line)
				(alternate "PWR_CSTOP" bidirectional line)
				(alternate "PWR_WKUP7" bidirectional line)
				(alternate "SPI3_RDY" bidirectional line)
				(alternate "TIM2_CH4" bidirectional line)
				(alternate "TSC_G1_IO3" bidirectional line)
				(alternate "USART1_DE" bidirectional line)
				(alternate "USART1_RTS" bidirectional line)
			)
			(pin power_in line
				(at 2.54 45.72 270)
				(length 2.54)
				(name "VDDA"
					(effects
						(font
							(size 1.27 1.27)
						)
					)
				)
				(number "6"
					(effects
						(font
							(size 1.27 1.27)
						)
					)
				)
			)
			(pin bidirectional line
				(at 22.86 30.48 180)
				(length 2.54)
				(name "PA5"
					(effects
						(font
							(size 1.27 1.27)
						)
					)
				)
				(number "7"
					(effects
						(font
							(size 1.27 1.27)
						)
					)
				)
				(alternate "ADC4_IN4" bidirectional line)
				(alternate "LPTIM2_ETR" bidirectional line)
				(alternate "PWR_CSLEEP" bidirectional line)
				(alternate "PWR_WKUP6" bidirectional line)
				(alternate "SPI3_NSS" bidirectional line)
				(alternate "TIM2_CH1" bidirectional line)
				(alternate "TIM2_ETR" bidirectional line)
				(alternate "TSC_G1_IO4" bidirectional line)
				(alternate "USART1_CK" bidirectional line)
			)
			(pin bidirectional line
				(at 22.86 33.02 180)
				(length 2.54)
				(name "PA3"
					(effects
						(font
							(size 1.27 1.27)
						)
					)
				)
				(number "8"
					(effects
						(font
							(size 1.27 1.27)
						)
					)
				)
				(alternate "ADC4_IN6" bidirectional line)
				(alternate "PWR_WKUP5" bidirectional line)
				(alternate "TIM16_CH1N" bidirectional line)
				(alternate "TSC_G4_IO2" bidirectional line)
				(alternate "USART1_DE" bidirectional line)
				(alternate "USART1_RTS" bidirectional line)
			)
			(pin bidirectional line
				(at -20.32 -17.78 0)
				(length 2.54)
				(name "PB10"
					(effects
						(font
							(size 1.27 1.27)
						)
					)
				)
				(number "9"
					(effects
						(font
							(size 1.27 1.27)
						)
					)
				)
				(alternate "TIM16_BKIN" bidirectional line)
				(alternate "TSC_G4_IO3" bidirectional line)
				(alternate "USART1_CK" bidirectional line)
			)
		)
	)
	(symbol "STM32WBA52CGUx"
		(exclude_from_sim no)
		(in_bom yes)
		(on_board yes)
		(property "Reference" "U"
			(at -17.78 44.45 0)
			(effects
				(font
					(size 1.27 1.27)
				)
				(justify left)
			)
		)
		(property "Value" "STM32WBA52CGUx"
			(at 12.7 44.45 0)
			(effects
				(font
					(size 1.27 1.27)
				)
				(justify left)
			)
		)
		(property "Footprint" "Package_DFN_QFN:QFN-48-1EP_7x7mm_P0.5mm_EP5.6x5.6mm"
			(at -17.78 -40.64 0)
			(effects
				(font
					(size 1.27 1.27)
				)
				(justify right)
				(hide yes)
			)
		)
		(property "Datasheet" "https://www.st.com/resource/en/datasheet/stm32wba52cg.pdf"
			(at 0 0 0)
			(effects
				(font
					(size 1.27 1.27)
				)
				(hide yes)
			)
		)
		(property "Description" "STMicroelectronics Arm Cortex-M33 MCU, 1024KB flash, 128KB RAM, 100 MHz, 1.71-3.6V, 37 GPIO, UFQFPN48"
			(at 0 0 0)
			(effects
				(font
					(size 1.27 1.27)
				)
				(hide yes)
			)
		)
		(property "ki_locked" ""
			(at 0 0 0)
			(effects
				(font
					(size 1.27 1.27)
				)
			)
		)
		(property "ki_keywords" "Arm Cortex-M33 STM32WBA STM32WBAx2"
			(at 0 0 0)
			(effects
				(font
					(size 1.27 1.27)
				)
				(hide yes)
			)
		)
		(property "ki_fp_filters" "QFN*1EP*7x7mm*P0.5mm*"
			(at 0 0 0)
			(effects
				(font
					(size 1.27 1.27)
				)
				(hide yes)
			)
		)
		(symbol "STM32WBA52CGUx_0_1"
			(rectangle
				(start -17.78 -40.64)
				(end 20.32 43.18)
				(stroke
					(width 0.254)
					(type default)
				)
				(fill
					(type background)
				)
			)
		)
		(symbol "STM32WBA52CGUx_1_1"
			(pin bidirectional line
				(at -20.32 -22.86 0)
				(length 2.54)
				(name "PB12"
					(effects
						(font
							(size 1.27 1.27)
						)
					)
				)
				(number "1"
					(effects
						(font
							(size 1.27 1.27)
						)
					)
				)
				(alternate "SPI1_RDY" bidirectional line)
				(alternate "TIM2_CH1" bidirectional line)
				(alternate "TIM2_ETR" bidirectional line)
				(alternate "TIM3_ETR" bidirectional line)
				(alternate "TSC_SYNC" bidirectional line)
				(alternate "USART1_TX" bidirectional line)
			)
			(pin bidirectional line
				(at 22.86 35.56 180)
				(length 2.54)
				(name "PA2"
					(effects
						(font
							(size 1.27 1.27)
						)
					)
				)
				(number "10"
					(effects
						(font
							(size 1.27 1.27)
						)
					)
				)
				(alternate "ADC4_IN7" bidirectional line)
				(alternate "LPUART1_TX" bidirectional line)
				(alternate "PWR_WKUP4" bidirectional line)
				(alternate "RCC_LSCO" bidirectional line)
				(alternate "TIM16_CH1" bidirectional line)
				(alternate "TIM1_BKIN" bidirectional line)
				(alternate "TIM3_CH1" bidirectional line)
				(alternate "TSC_G4_IO4" bidirectional line)
				(alternate "USART1_DE" bidirectional line)
				(alternate "USART1_RTS" bidirectional line)
			)
			(pin power_in line
				(at -7.62 45.72 270)
				(length 2.54)
				(name "VDD"
					(effects
						(font
							(size 1.27 1.27)
						)
					)
				)
				(number "11"
					(effects
						(font
							(size 1.27 1.27)
						)
					)
				)
			)
			(pin bidirectional line
				(at 22.86 38.1 180)
				(length 2.54)
				(name "PA1"
					(effects
						(font
							(size 1.27 1.27)
						)
					)
				)
				(number "12"
					(effects
						(font
							(size 1.27 1.27)
						)
					)
				)
				(alternate "ADC4_IN8" bidirectional line)
				(alternate "LPTIM2_CH2" bidirectional line)
				(alternate "LPUART1_RX" bidirectional line)
				(alternate "PWR_WKUP3" bidirectional line)
				(alternate "SPI1_RDY" bidirectional line)
				(alternate "TIM17_CH1" bidirectional line)
				(alternate "TIM1_CH1N" bidirectional line)
				(alternate "TIM3_CH2" bidirectional line)
				(alternate "TSC_G2_IO1" bidirectional line)
				(alternate "USART1_CK" bidirectional line)
			)
			(pin bidirectional line
				(at 22.86 40.64 180)
				(length 2.54)
				(name "PA0"
					(effects
						(font
							(size 1.27 1.27)
						)
					)
				)
				(number "13"
					(effects
						(font
							(size 1.27 1.27)
						)
					)
				)
				(alternate "ADC4_IN9" bidirectional line)
				(alternate "LPTIM1_IN1" bidirectional line)
				(alternate "LPUART1_CTS" bidirectional line)
				(alternate "PWR_WKUP1" bidirectional line)
				(alternate "SPI3_SCK" bidirectional line)
				(alternate "TIM1_CH2N" bidirectional line)
				(alternate "TIM3_CH3" bidirectional line)
				(alternate "TIM3_ETR" bidirectional line)
				(alternate "TSC_G2_IO2" bidirectional line)
			)
			(pin bidirectional line
				(at -20.32 -15.24 0)
				(length 2.54)
				(name "PB9"
					(effects
						(font
							(size 1.27 1.27)
						)
					)
				)
				(number "14"
					(effects
						(font
							(size 1.27 1.27)
						)
					)
				)
				(alternate "ADC4_IN10" bidirectional line)
				(alternate "IR_OUT" bidirectional line)
				(alternate "LPTIM2_IN1" bidirectional line)
				(alternate "LPUART1_DE" bidirectional line)
				(alternate "LPUART1_RTS" bidirectional line)
				(alternate "PWR_WKUP8" bidirectional line)
				(alternate "SPI3_MISO" bidirectional line)
				(alternate "TIM16_CH1" bidirectional line)
				(alternate "TIM1_CH3N" bidirectional line)
				(alternate "TIM3_CH4" bidirectional line)
				(alternate "TSC_G2_IO3" bidirectional line)
			)
			(pin bidirectional line
				(at -20.32 -12.7 0)
				(length 2.54)
				(name "PB8"
					(effects
						(font
							(size 1.27 1.27)
						)
					)
				)
				(number "15"
					(effects
						(font
							(size 1.27 1.27)
						)
					)
				)
				(alternate "LPTIM1_ETR" bidirectional line)
				(alternate "PWR_PVD_IN" bidirectional line)
				(alternate "SPI3_MOSI" bidirectional line)
				(alternate "TIM16_CH1N" bidirectional line)
				(alternate "TIM1_CH1" bidirectional line)
				(alternate "TIM3_ETR" bidirectional line)
				(alternate "TSC_G2_IO4" bidirectional line)
				(alternate "USART2_RX" bidirectional line)
			)
			(pin bidirectional line
				(at -20.32 12.7 0)
				(length 2.54)
				(name "PC15"
					(effects
						(font
							(size 1.27 1.27)
						)
					)
				)
				(number "16"
					(effects
						(font
							(size 1.27 1.27)
						)
					)
				)
				(alternate "ADC4_EXTI15" bidirectional line)
				(alternate "RCC_OSC32_OUT" bidirectional line)
			)
			(pin bidirectional line
				(at -20.32 15.24 0)
				(length 2.54)
				(name "PC14"
					(effects
						(font
							(size 1.27 1.27)
						)
					)
				)
				(number "17"
					(effects
						(font
							(size 1.27 1.27)
						)
					)
				)
				(alternate "RCC_OSC32_IN" bidirectional line)
			)
			(pin bidirectional line
				(at -20.32 17.78 0)
				(length 2.54)
				(name "PC13"
					(effects
						(font
							(size 1.27 1.27)
						)
					)
				)
				(number "18"
					(effects
						(font
							(size 1.27 1.27)
						)
					)
				)
				(alternate "PWR_WKUP2" bidirectional line)
				(alternate "RTC_OUT1" bidirectional line)
				(alternate "RTC_TS" bidirectional line)
				(alternate "TAMP_IN4" bidirectional line)
				(alternate "TAMP_OUT5" bidirectional line)
				(alternate "TIM1_BKIN2" bidirectional line)
				(alternate "TSC_G5_IO1" bidirectional line)
			)
			(pin bidirectional line
				(at -20.32 -10.16 0)
				(length 2.54)
				(name "PB7"
					(effects
						(font
							(size 1.27 1.27)
						)
					)
				)
				(number "19"
					(effects
						(font
							(size 1.27 1.27)
						)
					)
				)
				(alternate "PWR_WKUP5" bidirectional line)
				(alternate "TAMP_IN5" bidirectional line)
				(alternate "TAMP_OUT4" bidirectional line)
				(alternate "TIM1_CH4N" bidirectional line)
				(alternate "TSC_G5_IO2" bidirectional line)
			)
			(pin bidirectional line
				(at -20.32 -20.32 0)
				(length 2.54)
				(name "PB11"
					(effects
						(font
							(size 1.27 1.27)
						)
					)
				)
				(number "2"
					(effects
						(font
							(size 1.27 1.27)
						)
					)
				)
				(alternate "LPTIM1_CH1" bidirectional line)
				(alternate "LPTIM1_ETR" bidirectional line)
				(alternate "LPUART1_TX" bidirectional line)
			)
			(pin bidirectional line
				(at -20.32 -7.62 0)
				(length 2.54)
				(name "PB6"
					(effects
						(font
							(size 1.27 1.27)
						)
					)
				)
				(number "20"
					(effects
						(font
							(size 1.27 1.27)
						)
					)
				)
				(alternate "PWR_WKUP3" bidirectional line)
				(alternate "TIM2_CH1" bidirectional line)
				(alternate "TIM2_ETR" bidirectional line)
				(alternate "TSC_G5_IO3" bidirectional line)
			)
			(pin bidirectional line
				(at -20.32 -5.08 0)
				(length 2.54)
				(name "PB5"
					(effects
						(font
							(size 1.27 1.27)
						)
					)
				)
				(number "21"
					(effects
						(font
							(size 1.27 1.27)
						)
					)
				)
				(alternate "LPUART1_TX" bidirectional line)
				(alternate "TIM3_CH1" bidirectional line)
				(alternate "TSC_G5_IO4" bidirectional line)
			)
			(pin power_in line
				(at -5.08 45.72 270)
				(length 2.54)
				(name "VDD"
					(effects
						(font
							(size 1.27 1.27)
						)
					)
				)
				(number "22"
					(effects
						(font
							(size 1.27 1.27)
						)
					)
				)
			)
			(pin bidirectional line
				(at -20.32 -2.54 0)
				(length 2.54)
				(name "PB4"
					(effects
						(font
							(size 1.27 1.27)
						)
					)
				)
				(number "23"
					(effects
						(font
							(size 1.27 1.27)
						)
					)
				)
				(alternate "DEBUG_JTRST" bidirectional line)
				(alternate "LPTIM2_IN2" bidirectional line)
				(alternate "SPI1_SCK" bidirectional line)
				(alternate "TIM17_CH1" bidirectional line)
				(alternate "TIM1_CH3" bidirectional line)
				(alternate "TSC_G3_IO1" bidirectional line)
				(alternate "USART2_RX" bidirectional line)
			)
			(pin bidirectional line
				(at -20.32 0 0)
				(length 2.54)
				(name "PB3"
					(effects
						(font
							(size 1.27 1.27)
						)
					)
				)
				(number "24"
					(effects
						(font
							(size 1.27 1.27)
						)
					)
				)
				(alternate "DEBUG_JTDO-SWO" bidirectional line)
				(alternate "I2C1_SDA" bidirectional line)
				(alternate "LPTIM1_IN2" bidirectional line)
				(alternate "SPI1_MISO" bidirectional line)
				(alternate "TIM17_CH1N" bidirectional line)
				(alternate "TIM1_CH4" bidirectional line)
				(alternate "TSC_G3_IO2" bidirectional line)
				(alternate "USART2_CK" bidirectional line)
			)
			(pin bidirectional line
				(at 22.86 5.08 180)
				(length 2.54)
				(name "PA15"
					(effects
						(font
							(size 1.27 1.27)
						)
					)
				)
				(number "25"
					(effects
						(font
							(size 1.27 1.27)
						)
					)
				)
				(alternate "ADC4_EXTI15" bidirectional line)
				(alternate "DEBUG_JTDI" bidirectional line)
				(alternate "I2C1_SCL" bidirectional line)
				(alternate "LPTIM1_CH2" bidirectional line)
				(alternate "SPI1_MOSI" bidirectional line)
				(alternate "TIM17_BKIN" bidirectional line)
				(alternate "TIM1_ETR" bidirectional line)
				(alternate "TSC_G3_IO3" bidirectional line)
				(alternate "USART2_DE" bidirectional line)
				(alternate "USART2_RTS" bidirectional line)
			)
			(pin bidirectional line
				(at 22.86 7.62 180)
				(length 2.54)
				(name "PA14"
					(effects
						(font
							(size 1.27 1.27)
						)
					)
				)
				(number "26"
					(effects
						(font
							(size 1.27 1.27)
						)
					)
				)
				(alternate "DEBUG_JTCK-SWCLK" bidirectional line)
				(alternate "TAMP_IN3" bidirectional line)
				(alternate "TAMP_OUT6" bidirectional line)
				(alternate "USART2_TX" bidirectional line)
			)
			(pin bidirectional line
				(at 22.86 10.16 180)
				(length 2.54)
				(name "PA13"
					(effects
						(font
							(size 1.27 1.27)
						)
					)
				)
				(number "27"
					(effects
						(font
							(size 1.27 1.27)
						)
					)
				)
				(alternate "DEBUG_JTMS-SWDIO" bidirectional line)
				(alternate "IR_OUT" bidirectional line)
			)
			(pin bidirectional line
				(at 22.86 12.7 180)
				(length 2.54)
				(name "PA12"
					(effects
						(font
							(size 1.27 1.27)
						)
					)
				)
				(number "28"
					(effects
						(font
							(size 1.27 1.27)
						)
					)
				)
				(alternate "PWR_WKUP6" bidirectional line)
				(alternate "RF_ANTSW0" bidirectional line)
				(alternate "SPI1_NSS" bidirectional line)
				(alternate "TIM1_CH2" bidirectional line)
				(alternate "TSC_G3_IO4" bidirectional line)
				(alternate "USART2_TX" bidirectional line)
			)
			(pin bidirectional line
				(at 22.86 15.24 180)
				(length 2.54)
				(name "PA11"
					(effects
						(font
							(size 1.27 1.27)
						)
					)
				)
				(number "29"
					(effects
						(font
							(size 1.27 1.27)
						)
					)
				)
				(alternate "LPTIM2_CH1" bidirectional line)
				(alternate "RF_ANTSW1" bidirectional line)
				(alternate "TIM1_CH1" bidirectional line)
				(alternate "USART2_RX" bidirectional line)
			)
			(pin bidirectional line
				(at 22.86 22.86 180)
				(length 2.54)
				(name "PA8"
					(effects
						(font
							(size 1.27 1.27)
						)
					)
				)
				(number "3"
					(effects
						(font
							(size 1.27 1.27)
						)
					)
				)
				(alternate "ADC4_IN1" bidirectional line)
				(alternate "LPTIM1_CH2" bidirectional line)
				(alternate "RCC_MCO" bidirectional line)
				(alternate "SPI3_RDY" bidirectional line)
				(alternate "TIM2_CH2" bidirectional line)
				(alternate "TSC_G1_IO1" bidirectional line)
				(alternate "USART1_RX" bidirectional line)
			)
			(pin bidirectional line
				(at -20.32 2.54 0)
				(length 2.54)
				(name "PB2"
					(effects
						(font
							(size 1.27 1.27)
						)
					)
				)
				(number "30"
					(effects
						(font
							(size 1.27 1.27)
						)
					)
				)
				(alternate "I2C1_SCL" bidirectional line)
				(alternate "I2C3_SCL" bidirectional line)
				(alternate "PWR_WKUP1" bidirectional line)
				(alternate "RF_ANTSW2" bidirectional line)
				(alternate "RTC_OUT2" bidirectional line)
				(alternate "TIM1_CH1N" bidirectional line)
				(alternate "USART2_CTS" bidirectional line)
			)
			(pin bidirectional line
				(at -20.32 5.08 0)
				(length 2.54)
				(name "PB1"
					(effects
						(font
							(size 1.27 1.27)
						)
					)
				)
				(number "31"
					(effects
						(font
							(size 1.27 1.27)
						)
					)
				)
				(alternate "I2C1_SDA" bidirectional line)
				(alternate "I2C3_SDA" bidirectional line)
				(alternate "PWR_WKUP4" bidirectional line)
				(alternate "TIM1_CH2N" bidirectional line)
				(alternate "USART2_DE" bidirectional line)
				(alternate "USART2_RTS" bidirectional line)
			)
			(pin bidirectional line
				(at -20.32 7.62 0)
				(length 2.54)
				(name "PB0"
					(effects
						(font
							(size 1.27 1.27)
						)
					)
				)
				(number "32"
					(effects
						(font
							(size 1.27 1.27)
						)
					)
				)
				(alternate "LPTIM2_IN2" bidirectional line)
				(alternate "TIM1_CH3N" bidirectional line)
				(alternate "USART2_TX" bidirectional line)
			)
			(pin bidirectional line
				(at -20.32 -30.48 0)
				(length 2.54)
				(name "PB15"
					(effects
						(font
							(size 1.27 1.27)
						)
					)
				)
				(number "33"
					(effects
						(font
							(size 1.27 1.27)
						)
					)
				)
				(alternate "ADC4_EXTI15" bidirectional line)
				(alternate "I2C1_SMBA" bidirectional line)
				(alternate "I2C3_SMBA" bidirectional line)
				(alternate "LPUART1_CTS" bidirectional line)
				(alternate "TIM16_BKIN" bidirectional line)
				(alternate "TIM1_BKIN2" bidirectional line)
				(alternate "USART2_CTS" bidirectional line)
			)
			(pin bidirectional line
				(at -20.32 22.86 0)
				(length 2.54)
				(name "PH3"
					(effects
						(font
							(size 1.27 1.27)
						)
					)
				)
				(number "34"
					(effects
						(font
							(size 1.27 1.27)
						)
					)
				)
				(alternate "TAMP_IN2" bidirectional line)
				(alternate "TAMP_OUT1" bidirectional line)
			)
			(pin power_in line
				(at -2.54 45.72 270)
				(length 2.54)
				(name "VDD"
					(effects
						(font
							(size 1.27 1.27)
						)
					)
				)
				(number "35"
					(effects
						(font
							(size 1.27 1.27)
						)
					)
				)
			)
			(pin input line
				(at -20.32 40.64 0)
				(length 2.54)
				(name "NRST"
					(effects
						(font
							(size 1.27 1.27)
						)
					)
				)
				(number "36"
					(effects
						(font
							(size 1.27 1.27)
						)
					)
				)
			)
			(pin bidirectional line
				(at -20.32 27.94 0)
				(length 2.54)
				(name "RF"
					(effects
						(font
							(size 1.27 1.27)
						)
					)
				)
				(number "37"
					(effects
						(font
							(size 1.27 1.27)
						)
					)
				)
			)
			(pin power_in line
				(at 5.08 45.72 270)
				(length 2.54)
				(name "VDDHPA"
					(effects
						(font
							(size 1.27 1.27)
						)
					)
				)
				(number "38"
					(effects
						(font
							(size 1.27 1.27)
						)
					)
				)
			)
			(pin power_in line
				(at 7.62 45.72 270)
				(length 2.54)
				(name "VDDRF"
					(effects
						(font
							(size 1.27 1.27)
						)
					)
				)
				(number "39"
					(effects
						(font
							(size 1.27 1.27)
						)
					)
				)
			)
			(pin bidirectional line
				(at 22.86 25.4 180)
				(length 2.54)
				(name "PA7"
					(effects
						(font
							(size 1.27 1.27)
						)
					)
				)
				(number "4"
					(effects
						(font
							(size 1.27 1.27)
						)
					)
				)
				(alternate "ADC4_IN2" bidirectional line)
				(alternate "I2C3_SDA" bidirectional line)
				(alternate "PWR_WKUP8" bidirectional line)
				(alternate "TAMP_IN1" bidirectional line)
				(alternate "TAMP_OUT2" bidirectional line)
				(alternate "TIM2_CH3" bidirectional line)
				(alternate "TSC_G1_IO2" bidirectional line)
				(alternate "USART1_CTS" bidirectional line)
			)
			(pin input line
				(at -20.32 33.02 0)
				(length 2.54)
				(name "OSC_OUT"
					(effects
						(font
							(size 1.27 1.27)
						)
					)
				)
				(number "40"
					(effects
						(font
							(size 1.27 1.27)
						)
					)
				)
				(alternate "RCC_OSC_OUT" bidirectional line)
			)
			(pin input line
				(at -20.32 35.56 0)
				(length 2.54)
				(name "OSC_IN"
					(effects
						(font
							(size 1.27 1.27)
						)
					)
				)
				(number "41"
					(effects
						(font
							(size 1.27 1.27)
						)
					)
				)
				(alternate "RCC_OSC_IN" bidirectional line)
			)
			(pin power_in line
				(at 10.16 45.72 270)
				(length 2.54)
				(name "VDDRFPA"
					(effects
						(font
							(size 1.27 1.27)
						)
					)
				)
				(number "42"
					(effects
						(font
							(size 1.27 1.27)
						)
					)
				)
			)
			(pin power_in line
				(at 0 45.72 270)
				(length 2.54)
				(name "VDD"
					(effects
						(font
							(size 1.27 1.27)
						)
					)
				)
				(number "43"
					(effects
						(font
							(size 1.27 1.27)
						)
					)
				)
			)
			(pin power_out line
				(at -20.32 -35.56 0)
				(length 2.54)
				(name "VCAP"
					(effects
						(font
							(size 1.27 1.27)
						)
					)
				)
				(number "44"
					(effects
						(font
							(size 1.27 1.27)
						)
					)
				)
			)
			(pin bidirectional line
				(at 22.86 17.78 180)
				(length 2.54)
				(name "PA10"
					(effects
						(font
							(size 1.27 1.27)
						)
					)
				)
				(number "45"
					(effects
						(font
							(size 1.27 1.27)
						)
					)
				)
				(alternate "LPUART1_RX" bidirectional line)
				(alternate "TIM3_CH1" bidirectional line)
			)
			(pin bidirectional line
				(at 22.86 20.32 180)
				(length 2.54)
				(name "PA9"
					(effects
						(font
							(size 1.27 1.27)
						)
					)
				)
				(number "46"
					(effects
						(font
							(size 1.27 1.27)
						)
					)
				)
				(alternate "LPUART1_DE" bidirectional line)
				(alternate "LPUART1_RTS" bidirectional line)
				(alternate "TIM3_CH2" bidirectional line)
			)
			(pin bidirectional line
				(at -20.32 -27.94 0)
				(length 2.54)
				(name "PB14"
					(effects
						(font
							(size 1.27 1.27)
						)
					)
				)
				(number "47"
					(effects
						(font
							(size 1.27 1.27)
						)
					)
				)
				(alternate "PWR_WKUP7" bidirectional line)
				(alternate "RTC_REFIN" bidirectional line)
				(alternate "TIM3_CH3" bidirectional line)
				(alternate "TSC_G6_IO1" bidirectional line)
				(alternate "USART1_TX" bidirectional line)
			)
			(pin bidirectional line
				(at -20.32 -25.4 0)
				(length 2.54)
				(name "PB13"
					(effects
						(font
							(size 1.27 1.27)
						)
					)
				)
				(number "48"
					(effects
						(font
							(size 1.27 1.27)
						)
					)
				)
				(alternate "TIM3_CH4" bidirectional line)
				(alternate "TSC_G6_IO2" bidirectional line)
			)
			(pin power_in line
				(at 2.54 -43.18 90)
				(length 2.54)
				(name "VSS/VSS"
					(effects
						(font
							(size 1.27 1.27)
						)
					)
				)
				(number "49"
					(effects
						(font
							(size 1.27 1.27)
						)
					)
				)
			)
			(pin bidirectional line
				(at 22.86 27.94 180)
				(length 2.54)
				(name "PA6"
					(effects
						(font
							(size 1.27 1.27)
						)
					)
				)
				(number "5"
					(effects
						(font
							(size 1.27 1.27)
						)
					)
				)
				(alternate "ADC4_IN3" bidirectional line)
				(alternate "I2C3_SCL" bidirectional line)
				(alternate "PWR_CSTOP" bidirectional line)
				(alternate "PWR_WKUP7" bidirectional line)
				(alternate "SPI3_RDY" bidirectional line)
				(alternate "TIM2_CH4" bidirectional line)
				(alternate "TSC_G1_IO3" bidirectional line)
				(alternate "USART1_DE" bidirectional line)
				(alternate "USART1_RTS" bidirectional line)
			)
			(pin power_in line
				(at 2.54 45.72 270)
				(length 2.54)
				(name "VDDA"
					(effects
						(font
							(size 1.27 1.27)
						)
					)
				)
				(number "6"
					(effects
						(font
							(size 1.27 1.27)
						)
					)
				)
			)
			(pin bidirectional line
				(at 22.86 30.48 180)
				(length 2.54)
				(name "PA5"
					(effects
						(font
							(size 1.27 1.27)
						)
					)
				)
				(number "7"
					(effects
						(font
							(size 1.27 1.27)
						)
					)
				)
				(alternate "ADC4_IN4" bidirectional line)
				(alternate "LPTIM2_ETR" bidirectional line)
				(alternate "PWR_CSLEEP" bidirectional line)
				(alternate "PWR_WKUP6" bidirectional line)
				(alternate "SPI3_NSS" bidirectional line)
				(alternate "TIM2_CH1" bidirectional line)
				(alternate "TIM2_ETR" bidirectional line)
				(alternate "TSC_G1_IO4" bidirectional line)
				(alternate "USART1_CK" bidirectional line)
			)
			(pin bidirectional line
				(at 22.86 33.02 180)
				(length 2.54)
				(name "PA3"
					(effects
						(font
							(size 1.27 1.27)
						)
					)
				)
				(number "8"
					(effects
						(font
							(size 1.27 1.27)
						)
					)
				)
				(alternate "ADC4_IN6" bidirectional line)
				(alternate "PWR_WKUP5" bidirectional line)
				(alternate "TIM16_CH1N" bidirectional line)
				(alternate "TSC_G4_IO2" bidirectional line)
				(alternate "USART1_DE" bidirectional line)
				(alternate "USART1_RTS" bidirectional line)
			)
			(pin bidirectional line
				(at -20.32 -17.78 0)
				(length 2.54)
				(name "PB10"
					(effects
						(font
							(size 1.27 1.27)
						)
					)
				)
				(number "9"
					(effects
						(font
							(size 1.27 1.27)
						)
					)
				)
				(alternate "TIM16_BKIN" bidirectional line)
				(alternate "TSC_G4_IO3" bidirectional line)
				(alternate "USART1_CK" bidirectional line)
			)
		)
	)
)